 {
    "success": "true",
    "result": {
        "resource_id": "3c32eff-273c-413a-a8d4-69433d02c943",
        "fields": [
            {
                "type": "int4",
                "id": "_id"
            }
        ],
        "records": [
            {"_id":100}, {"_id":101}, {"_id":102}, {"_id":103}, {"_id":104}, {"_id":105}, {"_id":106}, {"_id":107}, {"_id":108}, {"_id":109}, {"_id":110}, {"_id":111}, {"_id":112}, {"_id":113}, {"_id":114}, {"_id":115}, {"_id":116}, {"_id":117}, {"_id":118}, {"_id":119}, {"_id":120}, {"_id":121}, {"_id":122}, {"_id":123}, {"_id":124}, {"_id":125}, {"_id":126}, {"_id":127}, {"_id":128}, {"_id":129}, {"_id":130}, {"_id":131}, {"_id":132}, {"_id":133}, {"_id":134}, {"_id":135}, {"_id":136}, {"_id":137}, {"_id":138}, {"_id":139}, {"_id":140}, {"_id":141}, {"_id":142}, {"_id":143}, {"_id":144}, {"_id":145}, {"_id":146}, {"_id":147}, {"_id":148}, {"_id":149}, {"_id":150}, {"_id":151}, {"_id":152}, {"_id":153}, {"_id":154}, {"_id":155}, {"_id":156}, {"_id":157}, {"_id":158}, {"_id":159}, {"_id":160}, {"_id":161}, {"_id":162}, {"_id":163}, {"_id":164}, {"_id":165}, {"_id":166}, {"_id":167}, {"_id":168}, {"_id":169}, {"_id":170}, {"_id":171}, {"_id":172}, {"_id":173}, {"_id":174}, {"_id":175}, {"_id":176}, {"_id":177}, {"_id":178}, {"_id":179}, {"_id":180}, {"_id":181}, {"_id":182}, {"_id":183}, {"_id":184}, {"_id":185}, {"_id":186}, {"_id":187}, {"_id":188}, {"_id":189}, {"_id":190}, {"_id":191}, {"_id":192}, {"_id":193}, {"_id":194}, {"_id":195}, {"_id":196}, {"_id":197}, {"_id":198}, {"_id":199}
        ],
        "_links": {
            "start": "/api/action/datastore_search?resource_id=3c32eff-273c-413a-a8d4-69433d02c943",
            "next": "/api/action/datastore_search?offset=100&resource_id=3c32eff-273c-413a-a8d4-69433d02c943"
        },
        "total": 200
    }
}